Total: 4.767831932E9 / 14982 rec_occ / 11794 conf_occ (monitor_3@192.168.0.110:1099/JADE).
Total: 4.291310873E9 / 15059 rec_occ / 11943 conf_occ (monitor_1@192.168.0.110:1099/JADE).
Total: 5.22263442E9 / 15219 rec_occ / 12125 conf_occ (monitor_8@192.168.0.110:1099/JADE).
Total: 5.820027585E9 / 15011 rec_occ / 11877 conf_occ (monitor_6@192.168.0.110:1099/JADE).
Total: 3.599268249E9 / 15103 rec_occ / 11954 conf_occ (monitor_4@192.168.0.110:1099/JADE).
Total: 4.206004672E9 / 15177 rec_occ / 12046 conf_occ (monitor_2@192.168.0.110:1099/JADE).
Total: 4.813790891E9 / 14991 rec_occ / 11824 conf_occ (monitor_10@192.168.0.110:1099/JADE).
Total: 3.370375591E9 / 14952 rec_occ / 11787 conf_occ (monitor_7@192.168.0.110:1099/JADE).
Total: 3.524144407E9 / 15131 rec_occ / 11989 conf_occ (monitor_9@192.168.0.110:1099/JADE).
Total: 4.510485524E9 / 15094 rec_occ / 11963 conf_occ (monitor_5@192.168.0.110:1099/JADE).
[da0@192.168.0.110:1099/JADE] Total:319578 messages sent in 3821160 milliseconds.
counts(0): 0
counts(1): 31803
counts(2): 32118
counts(3): 32141
counts(4): 31941
counts(5): 31879
counts(6): 32089
counts(7): 31700
counts(8): 31983
counts(9): 32056
counts(10): 31868
counts(11): 0
counts(12): 0